Project4/simulation/qsim/processor.msim.vcd
$comment
	File created using the following command:
		vcd file processor.msim.vcd -direction
$end
$date
	Wed Nov 09 13:33:28 2022
$end
$version
	ModelSim Version 10.5b
$end
$timescale
	1ps
$end

$scope module pc_vlg_vec_tst $end
$var reg 1 ! clk $end
$var reg 1 " clr $end
$var reg 32 # d [31:0] $end
$var reg 1 $ en $end
$var wire 1 % q [31] $end
$var wire 1 & q [30] $end
$var wire 1 ' q [29] $end
$var wire 1 ( q [28] $end
$var wire 1 ) q [27] $end
$var wire 1 * q [26] $end
$var wire 1 + q [25] $end
$var wire 1 , q [24] $end
$var wire 1 - q [23] $end
$var wire 1 . q [22] $end
$var wire 1 / q [21] $end
$var wire 1 0 q [20] $end
$var wire 1 1 q [19] $end
$var wire 1 2 q [18] $end
$var wire 1 3 q [17] $end
$var wire 1 4 q [16] $end
$var wire 1 5 q [15] $end
$var wire 1 6 q [14] $end
$var wire 1 7 q [13] $end
$var wire 1 8 q [12] $end
$var wire 1 9 q [11] $end
$var wire 1 : q [10] $end
$var wire 1 ; q [9] $end
$var wire 1 < q [8] $end
$var wire 1 = q [7] $end
$var wire 1 > q [6] $end
$var wire 1 ? q [5] $end
$var wire 1 @ q [4] $end
$var wire 1 A q [3] $end
$var wire 1 B q [2] $end
$var wire 1 C q [1] $end
$var wire 1 D q [0] $end

$scope module i1 $end
$var wire 1 E gnd $end
$var wire 1 F vcc $end
$var wire 1 G unknown $end
$var tri1 1 H devclrn $end
$var tri1 1 I devpor $end
$var tri1 1 J devoe $end
$var wire 1 K q[0]~output_o $end
$var wire 1 L q[1]~output_o $end
$var wire 1 M q[2]~output_o $end
$var wire 1 N q[3]~output_o $end
$var wire 1 O q[4]~output_o $end
$var wire 1 P q[5]~output_o $end
$var wire 1 Q q[6]~output_o $end
$var wire 1 R q[7]~output_o $end
$var wire 1 S q[8]~output_o $end
$var wire 1 T q[9]~output_o $end
$var wire 1 U q[10]~output_o $end
$var wire 1 V q[11]~output_o $end
$var wire 1 W q[12]~output_o $end
$var wire 1 X q[13]~output_o $end
$var wire 1 Y q[14]~output_o $end
$var wire 1 Z q[15]~output_o $end
$var wire 1 [ q[16]~output_o $end
$var wire 1 \ q[17]~output_o $end
$var wire 1 ] q[18]~output_o $end
$var wire 1 ^ q[19]~output_o $end
$var wire 1 _ q[20]~output_o $end
$var wire 1 ` q[21]~output_o $end
$var wire 1 a q[22]~output_o $end
$var wire 1 b q[23]~output_o $end
$var wire 1 c q[24]~output_o $end
$var wire 1 d q[25]~output_o $end
$var wire 1 e q[26]~output_o $end
$var wire 1 f q[27]~output_o $end
$var wire 1 g q[28]~output_o $end
$var wire 1 h q[29]~output_o $end
$var wire 1 i q[30]~output_o $end
$var wire 1 j q[31]~output_o $end
$var wire 1 k clk~input_o $end
$var wire 1 l clk~inputclkctrl_outclk $end
$var wire 1 m d[0]~input_o $end
$var wire 1 n dffe_loop[0].my_dffe|q~feeder_combout $end
$var wire 1 o clr~input_o $end
$var wire 1 p clr~inputclkctrl_outclk $end
$var wire 1 q en~input_o $end
$var wire 1 r dffe_loop[0].my_dffe|q~q $end
$var wire 1 s d[1]~input_o $end
$var wire 1 t dffe_loop[1].my_dffe|q~feeder_combout $end
$var wire 1 u dffe_loop[1].my_dffe|q~q $end
$var wire 1 v d[2]~input_o $end
$var wire 1 w dffe_loop[2].my_dffe|q~q $end
$var wire 1 x d[3]~input_o $end
$var wire 1 y dffe_loop[3].my_dffe|q~q $end
$var wire 1 z d[4]~input_o $end
$var wire 1 { dffe_loop[4].my_dffe|q~feeder_combout $end
$var wire 1 | dffe_loop[4].my_dffe|q~q $end
$var wire 1 } d[5]~input_o $end
$var wire 1 ~ dffe_loop[5].my_dffe|q~q $end
$var wire 1 !! d[6]~input_o $end
$var wire 1 "! dffe_loop[6].my_dffe|q~feeder_combout $end
$var wire 1 #! dffe_loop[6].my_dffe|q~q $end
$var wire 1 $! d[7]~input_o $end
$var wire 1 %! dffe_loop[7].my_dffe|q~q $end
$var wire 1 &! d[8]~input_o $end
$var wire 1 '! dffe_loop[8].my_dffe|q~feeder_combout $end
$var wire 1 (! dffe_loop[8].my_dffe|q~q $end
$var wire 1 )! d[9]~input_o $end
$var wire 1 *! dffe_loop[9].my_dffe|q~feeder_combout $end
$var wire 1 +! dffe_loop[9].my_dffe|q~q $end
$var wire 1 ,! d[10]~input_o $end
$var wire 1 -! dffe_loop[10].my_dffe|q~feeder_combout $end
$var wire 1 .! dffe_loop[10].my_dffe|q~q $end
$var wire 1 /! d[11]~input_o $end
$var wire 1 0! dffe_loop[11].my_dffe|q~feeder_combout $end
$var wire 1 1! dffe_loop[11].my_dffe|q~q $end
$var wire 1 2! d[12]~input_o $end
$var wire 1 3! dffe_loop[12].my_dffe|q~feeder_combout $end
$var wire 1 4! dffe_loop[12].my_dffe|q~q $end
$var wire 1 5! d[13]~input_o $end
$var wire 1 6! dffe_loop[13].my_dffe|q~feeder_combout $end
$var wire 1 7! dffe_loop[13].my_dffe|q~q $end
$var wire 1 8! d[14]~input_o $end
$var wire 1 9! dffe_loop[14].my_dffe|q~feeder_combout $end
$var wire 1 :! dffe_loop[14].my_dffe|q~q $end
$var wire 1 ;! d[15]~input_o $end
$var wire 1 <! dffe_loop[15].my_dffe|q~q $end
$var wire 1 =! d[16]~input_o $end
$var wire 1 >! dffe_loop[16].my_dffe|q~feeder_combout $end
$var wire 1 ?! dffe_loop[16].my_dffe|q~q $end
$var wire 1 @! d[17]~input_o $end
$var wire 1 A! dffe_loop[17].my_dffe|q~feeder_combout $end
$var wire 1 B! dffe_loop[17].my_dffe|q~q $end
$var wire 1 C! d[18]~input_o $end
$var wire 1 D! dffe_loop[18].my_dffe|q~feeder_combout $end
$var wire 1 E! dffe_loop[18].my_dffe|q~q $end
$var wire 1 F! d[19]~input_o $end
$var wire 1 G! dffe_loop[19].my_dffe|q~feeder_combout $end
$var wire 1 H! dffe_loop[19].my_dffe|q~q $end
$var wire 1 I! d[20]~input_o $end
$var wire 1 J! dffe_loop[20].my_dffe|q~feeder_combout $end
$var wire 1 K! dffe_loop[20].my_dffe|q~q $end
$var wire 1 L! d[21]~input_o $end
$var wire 1 M! dffe_loop[21].my_dffe|q~feeder_combout $end
$var wire 1 N! dffe_loop[21].my_dffe|q~q $end
$var wire 1 O! d[22]~input_o $end
$var wire 1 P! dffe_loop[22].my_dffe|q~feeder_combout $end
$var wire 1 Q! dffe_loop[22].my_dffe|q~q $end
$var wire 1 R! d[23]~input_o $end
$var wire 1 S! dffe_loop[23].my_dffe|q~feeder_combout $end
$var wire 1 T! dffe_loop[23].my_dffe|q~q $end
$var wire 1 U! d[24]~input_o $end
$var wire 1 V! dffe_loop[24].my_dffe|q~feeder_combout $end
$var wire 1 W! dffe_loop[24].my_dffe|q~q $end
$var wire 1 X! d[25]~input_o $end
$var wire 1 Y! dffe_loop[25].my_dffe|q~feeder_combout $end
$var wire 1 Z! dffe_loop[25].my_dffe|q~q $end
$var wire 1 [! d[26]~input_o $end
$var wire 1 \! dffe_loop[26].my_dffe|q~feeder_combout $end
$var wire 1 ]! dffe_loop[26].my_dffe|q~q $end
$var wire 1 ^! d[27]~input_o $end
$var wire 1 _! dffe_loop[27].my_dffe|q~feeder_combout $end
$var wire 1 `! dffe_loop[27].my_dffe|q~q $end
$var wire 1 a! d[28]~input_o $end
$var wire 1 b! dffe_loop[28].my_dffe|q~q $end
$var wire 1 c! d[29]~input_o $end
$var wire 1 d! dffe_loop[29].my_dffe|q~feeder_combout $end
$var wire 1 e! dffe_loop[29].my_dffe|q~q $end
$var wire 1 f! d[30]~input_o $end
$var wire 1 g! dffe_loop[30].my_dffe|q~feeder_combout $end
$var wire 1 h! dffe_loop[30].my_dffe|q~q $end
$var wire 1 i! d[31]~input_o $end
$var wire 1 j! dffe_loop[31].my_dffe|q~q $end
$upscope $end
$upscope $end
$enddefinitions $end
#0
$dumpvars
0!
0"
b0 #
1$
0D
0C
0B
0A
0@
0?
0>
0=
0<
0;
0:
09
08
07
06
05
04
03
02
01
00
0/
0.
0-
0,
0+
0*
0)
0(
0'
0&
0%
0E
1F
xG
1H
1I
1J
0K
0L
0M
0N
0O
0P
0Q
0R
0S
0T
0U
0V
0W
0X
0Y
0Z
0[
0\
0]
0^
0_
0`
0a
0b
0c
0d
0e
0f
0g
0h
0i
0j
0k
0l
0m
0n
0o
0p
1q
0r
0s
0t
0u
0v
0w
0x
0y
0z
0{
0|
0}
0~
0!!
0"!
0#!
0$!
0%!
0&!
0'!
0(!
0)!
0*!
0+!
0,!
0-!
0.!
0/!
00!
01!
02!
03!
04!
05!
06!
07!
08!
09!
0:!
0;!
0<!
0=!
0>!
0?!
0@!
0A!
0B!
0C!
0D!
0E!
0F!
0G!
0H!
0I!
0J!
0K!
0L!
0M!
0N!
0O!
0P!
0Q!
0R!
0S!
0T!
0U!
0V!
0W!
0X!
0Y!
0Z!
0[!
0\!
0]!
0^!
0_!
0`!
0a!
0b!
0c!
0d!
0e!
0f!
0g!
0h!
0i!
0j!
$end
#10000
1!
1k
1l
#20000
0!
0k
0l
#30000
1!
1k
1l
#40000
0!
0k
0l
#50000
b1 #
1!
1m
1k
1l
1n
#60000
0!
0k
0l
#70000
1!
1k
1l
1r
1K
1D
#80000
0!
0k
0l
#90000
1!
1k
1l
#100000
b11 #
b10 #
0!
0m
1s
0k
0l
0n
1t
#110000
1!
1k
1l
1u
0r
0K
1L
1C
0D
#120000
0!
0k
0l
#130000
1!
1k
1l
#140000
0!
0k
0l
#150000
b11 #
1!
1m
1k
1l
1n
#160000
0!
0k
0l
#170000
1!
1k
1l
1r
1K
1D
#180000
0!
0k
0l
#190000
1!
1k
1l
#200000
b111 #
b101 #
b100 #
0!
0m
0s
1v
0k
0l
0n
0t
#210000
1!
1k
1l
1w
0u
0r
0K
0L
1M
1B
0C
0D
#220000
0!
0k
0l
#230000
1!
1k
1l
#240000
0!
0k
0l
#250000
b101 #
1!
1m
1k
1l
1n
#260000
0!
0k
0l
#270000
1!
1k
1l
1r
1K
1D
#280000
0!
0k
0l
#290000
1!
1k
1l
#300000
b111 #
b110 #
0!
0m
1s
0k
0l
0n
1t
#310000
1!
1k
1l
1u
0r
0K
1L
1C
0D
#320000
0!
0k
0l
#330000
1!
1k
1l
#340000
0!
0k
0l
#350000
b111 #
1!
1m
1k
1l
1n
#360000
0!
0k
0l
#370000
1!
1k
1l
1r
1K
1D
#380000
0!
0k
0l
#390000
1!
1k
1l
#400000
b1111 #
b1011 #
b1001 #
b1000 #
0!
0m
0s
0v
1x
0k
0l
0n
0t
#410000
1!
1k
1l
1y
0w
0u
0r
0K
0L
0M
1N
1A
0B
0C
0D
#420000
0!
0k
0l
#430000
1!
1k
1l
#440000
0!
0k
0l
#450000
b1001 #
1!
1m
1k
1l
1n
#460000
0!
0k
0l
#470000
1!
1k
1l
1r
1K
1D
#480000
0!
0k
0l
#490000
1!
1k
1l
#500000
b1011 #
b1010 #
0!
0m
1s
0k
0l
0n
1t
#510000
1!
1k
1l
1u
0r
0K
1L
1C
0D
#520000
0!
0k
0l
#530000
1!
1k
1l
#540000
0!
0k
0l
#550000
b1011 #
1!
1m
1k
1l
1n
#560000
0!
0k
0l
#570000
1!
1k
1l
1r
1K
1D
#580000
0!
0k
0l
#590000
1!
1k
1l
#600000
b1111 #
b1101 #
b1100 #
0!
0m
0s
1v
0k
0l
0n
0t
#610000
1!
1k
1l
1w
0u
0r
0K
0L
1M
1B
0C
0D
#620000
0!
0k
0l
#630000
1!
1k
1l
#640000
0!
0k
0l
#650000
b1101 #
1!
1m
1k
1l
1n
#660000
0!
0k
0l
#670000
1!
1k
1l
1r
1K
1D
#680000
0!
0k
0l
#690000
1!
1k
1l
#700000
b1111 #
b1110 #
0!
0m
1s
0k
0l
0n
1t
#710000
1!
1k
1l
1u
0r
0K
1L
1C
0D
#720000
0!
0k
0l
#730000
1!
1k
1l
#740000
0!
0k
0l
#750000
b1111 #
1!
1m
1k
1l
1n
#760000
0!
0k
0l
#770000
1!
1k
1l
1r
1K
1D
#780000
0!
0k
0l
#790000
1!
1k
1l
#800000
b11111 #
b10111 #
b10011 #
b10001 #
b10000 #
0!
0m
0s
0v
0x
1z
0k
0l
0n
0t
1{
#810000
1!
1k
1l
1|
0y
0w
0u
0r
0K
0L
0M
0N
1O
1@
0A
0B
0C
0D
#820000
0!
0k
0l
#830000
1!
1k
1l
#840000
0!
0k
0l
#850000
b10001 #
1!
1m
1k
1l
1n
#860000
0!
0k
0l
#870000
1!
1k
1l
1r
1K
1D
#880000
0!
0k
0l
#890000
1!
1k
1l
#900000
b10011 #
b10010 #
0!
0m
1s
0k
0l
0n
1t
#910000
1!
1k
1l
1u
0r
0K
1L
1C
0D
#920000
0!
0k
0l
#930000
1!
1k
1l
#940000
0!
0k
0l
#950000
b10011 #
1!
1m
1k
1l
1n
#960000
0!
0k
0l
#970000
1!
1k
1l
1r
1K
1D
#980000
0!
0k
0l
#990000
1!
1k
1l
